…
Today's Question: UC Berkeley Admissions
========================================================

However, there was another variable researchers could consider: department applied to.


```
# A tibble: 24 x 4
      Admit Gender   Dept  Freq
     <fctr> <fctr> <fctr> <dbl>
1  Admitted   Male      A   512
2  Rejected   Male      A   313
3  Admitted Female      A    89
4  Rejected Female      A    19
5  Admitted   Male      B   353
6  Rejected   Male      B   207
7  Admitted Female      B    17
8  Rejected Female      B     8
9  Admitted   Male      C   120
10 Rejected   Male      C   205
# ... with 14 more rows
```
…
